dump2.vcd
$date
	Wed May  6 19:19:13 2026
$end
$version
	Icarus Verilog
$end
$timescale
	1ps
$end
$scope module alu_tb $end
$var wire 16 ! RES [15:0] $end
$var wire 1 " OFLOW $end
$var wire 1 # L $end
$var wire 1 $ G $end
$var wire 1 % ERR $end
$var wire 1 & E $end
$var wire 1 ' COUT $end
$var parameter 32 ( CMDWD $end
$var parameter 32 ) RW $end
$var parameter 32 * W $end
$var reg 1 + CE $end
$var reg 1 , CIN $end
$var reg 1 - CLK $end
$var reg 4 . CMD [3:0] $end
$var reg 2 / INP_VALID [1:0] $end
$var reg 1 0 MODE $end
$var reg 8 1 OPA [7:0] $end
$var reg 8 2 OPB [7:0] $end
$var reg 1 3 RST $end
$var integer 32 4 fail_count [31:0] $end
$var integer 32 5 pass_count [31:0] $end
$var integer 32 6 total_tests [31:0] $end
$scope module dut $end
$var wire 1 + CE $end
$var wire 1 , CIN $end
$var wire 1 - CLK $end
$var wire 4 7 CMD [3:0] $end
$var wire 2 8 INP_VALID [1:0] $end
$var wire 1 0 MODE $end
$var wire 8 9 OPA [7:0] $end
$var wire 8 : OPB [7:0] $end
$var wire 1 3 RST $end
$var parameter 32 ; CMDWD $end
$var parameter 32 < RW $end
$var parameter 32 = W $end
$var reg 8 > A [7:0] $end
$var reg 8 ? B [7:0] $end
$var reg 1 @ C $end
$var reg 4 A CMDR [3:0] $end
$var reg 1 ' COUT $end
$var reg 1 & E $end
$var reg 1 % ERR $end
$var reg 1 $ G $end
$var reg 2 B IV [1:0] $end
$var reg 1 # L $end
$var reg 1 C MODER $end
$var reg 1 " OFLOW $end
$var reg 16 D RES [15:0] $end
$var reg 1 E cout $end
$var reg 1 F e $end
$var reg 1 G err $end
$var reg 1 H g $end
$var reg 1 I l $end
$var reg 2 J mul_state [1:0] $end
$var reg 1 K oflow $end
$var reg 16 L res [15:0] $end
$upscope $end
$scope begin $unm_blk_44 $end
$var reg 8 M a11 [7:0] $end
$var reg 8 N b11 [7:0] $end
$var reg 1 O ov11 $end
$var reg 9 P tmp11 [8:0] $end
$upscope $end
$scope begin $unm_blk_45 $end
$var reg 8 Q a11b [7:0] $end
$var reg 8 R b11b [7:0] $end
$var reg 1 S ov11b $end
$var reg 9 T tmp11b [8:0] $end
$upscope $end
$scope begin $unm_blk_46 $end
$var reg 8 U a12 [7:0] $end
$var reg 8 V b12 [7:0] $end
$var reg 1 W ov12 $end
$var reg 9 X tmp12 [8:0] $end
$upscope $end
$scope begin $unm_blk_47 $end
$var reg 8 Y a12b [7:0] $end
$var reg 8 Z b12b [7:0] $end
$var reg 1 [ ov12b $end
$var reg 9 \ tmp12b [8:0] $end
$upscope $end
$scope begin $unm_blk_48 $end
$var reg 1 ] old_cout $end
$var reg 1 ^ old_e $end
$var reg 1 _ old_err $end
$var reg 1 ` old_g $end
$var reg 1 a old_l $end
$var reg 1 b old_oflow $end
$var reg 16 c old_res [15:0] $end
$upscope $end
$scope task apply_and_check $end
$upscope $end
$upscope $end
$enddefinitions $end
$comment Show the parameter values. $end
$dumpall
b1000 =
b11 <
b100 ;
b1000 *
b11 )
b100 (
$end
#0
$dumpvars
bx c
xb
xa
x`
x_
x^
x]
bx \
x[
bx Z
bx Y
bx X
xW
bx V
bx U
bx T
xS
bx R
bx Q
bx P
xO
bx N
bx M
b0 L
0K
b0 J
0I
0H
1G
0F
0E
b0 D
0C
b0 B
b0 A
0@
b0 ?
b0 >
b0 :
b0 9
b11 8
b0 7
b0 6
b0 5
b0 4
13
b0 2
b0 1
00
b11 /
b0 .
0-
0,
0+
0'
0&
0%
0$
0#
0"
b0 !
$end
#5000
1-
#10000
0-
#15000
03
1-
#20000
0-
#25000
1-
#30000
1+
b11110 2
b11110 :
b110010 1
b110010 9
10
0-
#35000
b1010000 L
0G
1%
1C
b11 B
b11110 ?
b110010 >
1-
#40000
0-
#45000
0%
b1010000 !
b1010000 D
1-
#46000
b1 5
b1 6
#50000
b1100100 2
b1100100 :
b11001000 1
b11001000 9
0-
#55000
b101100 L
b1100100 ?
b11001000 >
1-
#60000
0-
#65000
b101100 !
b101100 D
1-
#66000
b10 5
b10 6
#70000
b1 /
b1 8
b101 2
b101 :
b1010 1
b1010 9
0-
#75000
1G
b0 L
b1 B
b101 ?
b1010 >
1-
#80000
0-
#85000
1%
b0 !
b0 D
1-
#86000
b11 5
b11 6
#90000
b11 /
b11 8
b11110 2
b11110 :
b1010000 1
b1010000 9
b1 .
b1 7
0-
#95000
b110010 L
0G
b1 A
b11 B
b11110 ?
b1010000 >
1-
#100000
0-
#105000
0%
b110010 !
b110010 D
1-
#106000
b100 5
b100 6
#110000
b110010 2
b110010 :
b1010 1
b1010 9
0-
#115000
b11011000 L
b110010 ?
b1010 >
1-
#120000
0-
#125000
b11011000 !
b11011000 D
1-
#126000
b101 5
b101 6
#130000
b10 /
b10 8
b101 2
b101 :
0-
#135000
1G
b0 L
b10 B
b101 ?
1-
#140000
0-
#145000
1%
b0 !
b0 D
1-
#146000
b110 5
b110 6
#150000
b11 /
b11 8
1,
b11110 2
b11110 :
b110010 1
b110010 9
b10 .
b10 7
0-
#155000
b1010001 L
0G
b10 A
b11 B
1@
b11110 ?
b110010 >
1-
#160000
0-
#165000
0%
b1010001 !
b1010001 D
1-
#166000
b111 5
b111 6
#170000
b110111 2
b110111 :
b11001000 1
b11001000 9
0-
#175000
b0 L
b110111 ?
b11001000 >
1-
#180000
0-
#185000
b0 !
b0 D
1-
#186000
b1000 5
b1000 6
#190000
0,
b11110 2
b11110 :
b1010000 1
b1010000 9
b11 .
b11 7
0-
#195000
b110010 L
b11 A
0@
b11110 ?
b1010000 >
1-
#200000
0-
#205000
b110010 !
b110010 D
1-
#206000
b1001 5
b1001 6
#210000
1,
0-
#215000
b110001 L
1@
1-
#220000
0-
#225000
b110001 !
b110001 D
1-
#226000
b1010 5
b1010 6
#230000
b1 /
b1 8
0,
b0 2
b0 :
b1100011 1
b1100011 9
b100 .
b100 7
0-
#235000
b1100100 L
b100 A
b1 B
0@
b0 ?
b1100011 >
1-
#240000
0-
#245000
b1100100 !
b1100100 D
1-
#246000
b1011 5
b1011 6
#250000
b11111111 1
b11111111 9
0-
#255000
b0 L
b11111111 >
1-
#260000
0-
#265000
b0 !
b0 D
1-
#266000
b1100 5
b1100 6
#270000
b10 /
b10 8
b1010 1
b1010 9
0-
#275000
1G
b10 B
b1010 >
1-
#280000
0-
#285000
1%
1-
#286000
b1101 5
b1101 6
#290000
b1 /
b1 8
b1100100 1
b1100100 9
b101 .
b101 7
0-
#295000
b1100011 L
0G
b101 A
b1 B
b1100100 >
1-
#300000
0-
#305000
0%
b1100011 !
b1100011 D
1-
#306000
b1110 5
b1110 6
#310000
b0 1
b0 9
0-
#315000
b11111111 L
b0 >
1-
#320000
0-
#325000
b11111111 !
b11111111 D
1-
#326000
b1111 5
b1111 6
#330000
b10 /
b10 8
b110010 2
b110010 :
b110 .
b110 7
0-
#335000
b110011 L
b110 A
b10 B
b110010 ?
1-
#340000
0-
#345000
b110011 !
b110011 D
1-
#346000
b10000 5
b10000 6
#350000
b1 /
b1 8
b0 2
b0 :
0-
#355000
1G
b0 L
b1 B
b0 ?
1-
#360000
0-
#365000
1%
b0 !
b0 D
1-
#366000
b10001 5
b10001 6
#370000
b10 /
b10 8
b110010 2
b110010 :
b111 .
b111 7
0-
#375000
b110001 L
0G
b111 A
b10 B
b110010 ?
1-
#380000
0-
#385000
0%
b110001 !
b110001 D
1-
#386000
b10010 5
b10010 6
#390000
b11111111 2
b11111111 :
0-
#395000
b11111110 L
b11111111 ?
1-
#400000
0-
#405000
b11111110 !
b11111110 D
1-
#406000
b10011 5
b10011 6
#410000
b11 /
b11 8
b110010 2
b110010 :
b1100100 1
b1100100 9
b1000 .
b1000 7
0-
#415000
1H
b0 L
b1000 A
b11 B
b110010 ?
b1100100 >
1-
#420000
0-
#425000
1$
b0 !
b0 D
1-
#426000
b10100 5
b10100 6
#430000
b1100100 2
b1100100 :
b110010 1
b110010 9
0-
#435000
1I
0H
b1100100 ?
b110010 >
1-
#440000
0-
#445000
0$
1#
1-
#446000
b10101 5
b10101 6
#450000
b1001101 2
b1001101 :
b1001101 1
b1001101 9
0-
#455000
1F
0I
b1001101 ?
b1001101 >
1-
#460000
0-
#465000
0#
1&
1-
#466000
b10110 5
b10110 6
#470000
b1 /
b1 8
b101 2
b101 :
b1010 1
b1010 9
0-
#475000
1G
0F
b1 B
b101 ?
b1010 >
1-
#480000
0-
#485000
0&
1%
1-
#486000
b10111 5
b10111 6
#490000
b11 /
b11 8
b100 2
b100 :
b11 1
b11 9
b1001 .
b1001 7
0-
#495000
b10100 L
0G
b1 J
b1001 A
b11 B
b100 ?
b11 >
1-
#500000
0-
#505000
0%
b10100 !
b10100 D
b10 J
1-
#510000
0-
#515000
b1 J
1-
#516000
b11000 5
b11000 6
#520000
b11 2
b11 :
b101 1
b101 9
b1010 .
b1010 7
0-
#525000
b11110 L
b1010 A
b11 ?
b101 >
1-
#530000
0-
#535000
b11110 !
b11110 D
b10 J
1-
#540000
0-
#545000
b1 J
1-
#546000
1O
b10010110 P
b1010000 N
b1000110 M
b11001 5
b11001 6
#550000
b1010000 2
b1010000 :
b1000110 1
b1000110 9
b1011 .
b1011 7
0-
#555000
1K
1I
b10010110 L
b0 J
b1011 A
b1010000 ?
b1000110 >
1-
#560000
0-
#565000
1#
1"
b10010110 !
b10010110 D
1-
#566000
0S
b111110001 T
b11110110 R
b11111011 Q
b11010 5
b11010 6
#570000
b11110110 2
b11110110 :
b11111011 1
b11111011 9
0-
#575000
1H
0I
0K
b111110001 L
b11110110 ?
b11111011 >
1-
#580000
0-
#585000
1$
0#
0"
b111110001 !
b111110001 D
1-
#586000
b11011 5
b11011 6
#590000
b1 /
b1 8
b101 2
b101 :
b1010 1
b1010 9
0-
#595000
1G
0H
b0 L
b1 B
b101 ?
b1010 >
1-
#600000
0-
#605000
0$
1%
b0 !
b0 D
1-
#606000
1W
b10010110 X
b10110000 V
b1000110 U
b11100 5
b11100 6
#610000
b11 /
b11 8
b10110000 2
b10110000 :
b1000110 1
b1000110 9
b1100 .
b1100 7
0-
#615000
1K
1H
b10010110 L
0G
b1100 A
b11 B
b10110000 ?
b1000110 >
1-
#620000
0-
#625000
1$
0%
1"
b10010110 !
b10010110 D
1-
#626000
0[
b10100 \
b1010 Z
b11110 Y
b11101 5
b11101 6
#630000
b1010 2
b1010 :
b11110 1
b11110 9
0-
#635000
1H
0K
b10100 L
b1010 ?
b11110 >
1-
#640000
0-
#645000
0"
b10100 !
b10100 D
1-
#646000
b11110 5
b11110 6
#650000
b11110000 2
b11110000 :
b10101010 1
b10101010 9
b0 .
b0 7
00
0-
#655000
0H
b10100000 L
0C
b0 A
b11110000 ?
b10101010 >
1-
#660000
0-
#665000
0$
b10100000 !
b10100000 D
1-
#666000
b11111 5
b11111 6
#670000
b1111 2
b1111 :
b11111111 1
b11111111 9
0-
#675000
b1111 L
b1111 ?
b11111111 >
1-
#680000
0-
#685000
b1111 !
b1111 D
1-
#686000
b100000 5
b100000 6
#690000
b10 /
b10 8
b11110000 2
b11110000 :
b10101010 1
b10101010 9
0-
#695000
1G
b0 L
b10 B
b11110000 ?
b10101010 >
1-
#700000
0-
#705000
1%
b0 !
b0 D
1-
#706000
b100001 5
b100001 6
#710000
b11 /
b11 8
b1 .
b1 7
0-
#715000
b1011111 L
0G
b1 A
b11 B
1-
#720000
0-
#725000
0%
b1011111 !
b1011111 D
1-
#726000
b100010 5
b100010 6
#730000
b11111111 2
b11111111 :
b11111111 1
b11111111 9
0-
#735000
b0 L
b11111111 ?
b11111111 >
1-
#740000
0-
#745000
b0 !
b0 D
1-
#746000
b100011 5
b100011 6
#750000
b1010101 2
b1010101 :
b10101010 1
b10101010 9
b10 .
b10 7
0-
#755000
b11111111 L
b10 A
b1010101 ?
b10101010 >
1-
#760000
0-
#765000
b11111111 !
b11111111 D
1-
#766000
b100100 5
b100100 6
#770000
b0 2
b0 :
b0 1
b0 9
0-
#775000
b0 L
b0 ?
b0 >
1-
#780000
0-
#785000
b0 !
b0 D
1-
#786000
b100101 5
b100101 6
#790000
b1010101 2
b1010101 :
b10101010 1
b10101010 9
b11 .
b11 7
0-
#795000
b11 A
b1010101 ?
b10101010 >
1-
#800000
0-
#805000
1-
#806000
b100110 5
b100110 6
#810000
b0 2
b0 :
b0 1
b0 9
0-
#815000
b11111111 L
b0 ?
b0 >
1-
#820000
0-
#825000
b11111111 !
b11111111 D
1-
#826000
b100111 5
b100111 6
#830000
b10101010 2
b10101010 :
b10101010 1
b10101010 9
b100 .
b100 7
0-
#835000
b0 L
b100 A
b10101010 ?
b10101010 >
1-
#840000
0-
#845000
b0 !
b0 D
1-
#846000
b101000 5
b101000 6
#850000
b1010101 2
b1010101 :
0-
#855000
b11111111 L
b1010101 ?
1-
#860000
0-
#865000
b11111111 !
b11111111 D
1-
#866000
b101001 5
b101001 6
#870000
b10101010 2
b10101010 :
b101 .
b101 7
0-
#875000
b11111111 L
b101 A
b10101010 ?
1-
#880000
0-
#885000
1-
#886000
b101010 5
b101010 6
#890000
b1010101 2
b1010101 :
0-
#895000
b0 L
b1010101 ?
1-
#900000
0-
#905000
b0 !
b0 D
1-
#906000
b101011 5
b101011 6
#910000
b1 /
b1 8
b0 2
b0 :
b110 .
b110 7
0-
#915000
b1010101 L
b110 A
b1 B
b0 ?
1-
#920000
0-
#925000
b1010101 !
b1010101 D
1-
#926000
b101100 5
b101100 6
#930000
b0 1
b0 9
0-
#935000
b11111111 L
b0 >
1-
#940000
0-
#945000
b11111111 !
b11111111 D
1-
#946000
b101101 5
b101101 6
#950000
b10 /
b10 8
b10101010 1
b10101010 9
0-
#955000
1G
b0 L
b10 B
b10101010 >
1-
#960000
0-
#965000
1%
b0 !
b0 D
1-
#966000
b101110 5
b101110 6
#970000
b1010101 2
b1010101 :
b0 1
b0 9
b111 .
b111 7
0-
#975000
b10101010 L
0G
b111 A
b1010101 ?
b0 >
1-
#980000
0-
#985000
0%
b10101010 !
b10101010 D
1-
#986000
b101111 5
b101111 6
#990000
b0 2
b0 :
0-
#995000
b11111111 L
b0 ?
1-
#1000000
0-
#1005000
b11111111 !
b11111111 D
1-
#1006000
b110000 5
b110000 6
#1010000
b1 /
b1 8
b1010101 2
b1010101 :
0-
#1015000
1G
b0 L
b1 B
b1010101 ?
1-
#1020000
0-
#1025000
1%
b0 !
b0 D
1-
#1026000
b110001 5
b110001 6
#1030000
b0 2
b0 :
b10101010 1
b10101010 9
b1000 .
b1000 7
0-
#1035000
b1010101 L
0G
b1000 A
b0 ?
b10101010 >
1-
#1040000
0-
#1045000
0%
b1010101 !
b1010101 D
1-
#1046000
b110010 5
b110010 6
#1050000
b1 1
b1 9
0-
#1055000
b0 L
b1 >
1-
#1060000
0-
#1065000
b0 !
b0 D
1-
#1066000
b110011 5
b110011 6
#1070000
b1010101 1
b1010101 9
b1001 .
b1001 7
0-
#1075000
b10101010 L
b1001 A
b1010101 >
1-
#1080000
0-
#1085000
b10101010 !
b10101010 D
1-
#1086000
b110100 5
b110100 6
#1090000
b10000000 1
b10000000 9
0-
#1095000
b0 L
b10000000 >
1-
#1100000
0-
#1105000
b0 !
b0 D
1-
#1106000
b110101 5
b110101 6
#1110000
b10 /
b10 8
b10101010 2
b10101010 :
b0 1
b0 9
b1010 .
b1010 7
0-
#1115000
b1010101 L
b1010 A
b10 B
b10101010 ?
b0 >
1-
#1120000
0-
#1125000
b1010101 !
b1010101 D
1-
#1126000
b110110 5
b110110 6
#1130000
b11111111 2
b11111111 :
0-
#1135000
b1111111 L
b11111111 ?
1-
#1140000
0-
#1145000
b1111111 !
b1111111 D
1-
#1146000
b110111 5
b110111 6
#1150000
b1010101 2
b1010101 :
b1011 .
b1011 7
0-
#1155000
b10101010 L
b1011 A
b1010101 ?
1-
#1160000
0-
#1165000
b10101010 !
b10101010 D
1-
#1166000
b111000 5
b111000 6
#1170000
b10000000 2
b10000000 :
0-
#1175000
b0 L
b10000000 ?
1-
#1180000
0-
#1185000
b0 !
b0 D
1-
#1186000
b111001 5
b111001 6
#1190000
b11 /
b11 8
b1 2
b1 :
b10101010 1
b10101010 9
b1100 .
b1100 7
0-
#1195000
b1010101 L
b1100 A
b11 B
b1 ?
b10101010 >
1-
#1200000
0-
#1205000
b1010101 !
b1010101 D
1-
#1206000
b111010 5
b111010 6
#1210000
b100 2
b100 :
b11110000 1
b11110000 9
0-
#1215000
b1111 L
b100 ?
b11110000 >
1-
#1220000
0-
#1225000
b1111 !
b1111 D
1-
#1226000
b111011 5
b111011 6
#1230000
b1000 2
b1000 :
b10101010 1
b10101010 9
0-
#1235000
1G
b0 L
b1000 ?
b10101010 >
1-
#1240000
0-
#1245000
1%
b0 !
b0 D
1-
#1246000
b111100 5
b111100 6
#1250000
b1 /
b1 8
b1 2
b1 :
0-
#1255000
1G
b1 B
b1 ?
1-
#1260000
0-
#1265000
1-
#1266000
b111101 5
b111101 6
#1270000
b11 /
b11 8
b1101 .
b1101 7
0-
#1275000
b1010101 L
0G
b1101 A
b11 B
1-
#1280000
0-
#1285000
0%
b1010101 !
b1010101 D
1-
#1286000
b111110 5
b111110 6
#1290000
b100 2
b100 :
b1111 1
b1111 9
0-
#1295000
b11110000 L
b100 ?
b1111 >
1-
#1300000
0-
#1305000
b11110000 !
b11110000 D
1-
#1306000
b111111 5
b111111 6
#1310000
b1000 2
b1000 :
b10101010 1
b10101010 9
0-
#1315000
1G
b0 L
b1000 ?
b10101010 >
1-
#1320000
0-
#1325000
1%
b0 !
b0 D
1-
#1326000
b1000000 5
b1000000 6
#1330000
b10100 2
b10100 :
b1010 1
b1010 9
b0 .
b0 7
10
0-
#1335000
b11110 L
0G
1C
b0 A
b10100 ?
b1010 >
1-
#1340000
0-
#1345000
0%
b11110 !
b11110 D
1-
#1346000
0_
0^
0a
0`
0b
0]
b11110 c
#1350000
b1100011 2
b1100011 :
b1100011 1
b1100011 9
0+
0-
#1355000
1-
#1360000
0-
#1365000
1-
#1366000
1+
b1000001 5
b1000001 6
#1370000
1G
b0 L
b0 B
0C
b0 ?
b0 >
b0 !
b0 D
13
0-
#1375000
1-
#1380000
0-
#1385000
1-
#1386000
03
b1000010 5
b1000010 6
